…
Now we use a set of controls (which are assumed to be diploid at each locus) from a batch, to fit the proportion of read counts at each locus.

We need to provide a data frame which describes the samples we will be analysing and defines the samples we will use as controls:

``` r
sample_types_file = system.file("extdata",
                                "samples_info.csv",
                                package = "conliga",
                                mustWork = TRUE)

sample_types = readr::read_csv(sample_types_file)
sample_types
#> # A tibble: 24 x 2
#>    Sample            Control
#>    <chr>               <int>
#>  1 SLX-9394.FastSeqC       0
#>  2 SLX-9394.FastSeqD       0
#>  3 SLX-9394.FastSeqE       1
#>  4 SLX-9394.FastSeqG       1
#>  5 SLX-9394.FastSeqH       1
#>  6 SLX-9394.FastSeqI       1
#>  7 SLX-9394.FastSeqJ       1
#>  8 SLX-9394.FastSeqK       1
#>  9 SLX-9395.FastSeqA       1
#> 10 SLX-9395.FastSeqC       1
#> # ... with 14 more rows
```
…
Get data ready to run the MCMC.

``` r
# read cytoband information cytoBandIdeo.txt file - obtained from UCSC

cytoband_file = system.file("extdata",
                            "cytoBandIdeo.txt",
                            package = "conliga",
                            mustWork = TRUE)

cytoband = read_cytobands(cytoband_file,
                          chr_order=chromosomes)

cytoband
#> # A tibble: 811 x 5
#>    chr      start      end name   stain 
#>    <fct>    <int>    <int> <chr>  <chr> 
#>  1 chr1         0  2300000 p36.33 gneg  
#>  2 chr1   2300000  5300000 p36.32 gpos25
#>  3 chr1   5300000  7100000 p36.31 gneg  
#>  4 chr1   7100000  9100000 p36.23 gpos25
#>  5 chr1   9100000 12500000 p36.22 gneg  
#>  6 chr1  12500000 15900000 p36.21 gpos50
#>  7 chr1  15900000 20100000 p36.13 gneg  
#>  8 chr1  20100000 23600000 p36.12 gpos25
#>  9 chr1  23600000 27600000 p36.11 gneg  
#> 10 chr1  27600000 29900000 p35.3  gpos25
#> # ... with 801 more rows
…
